myone/simulation/qsim/mydisp.msim.vcd
$comment
	File created using the following command:
		vcd file mydisp.msim.vcd -direction
$end
$date
	Tue May 25 23:37:23 2021
$end
$version
	ModelSim Version 10.1d
$end
$timescale
	1ps
$end
$scope module mydisp_vlg_vec_tst $end
$var reg 1 ! clk $end
$var wire 1 " led $end
$var wire 1 # Q0 $end
$var wire 1 $ Q1 $end
$var wire 1 % Q2 $end
$var wire 1 & Q3 $end
$var wire 1 ' smg_en0 $end
$var wire 1 ( smg_en1 $end
$var wire 1 ) smg_en2 $end
$var wire 1 * smg_en3 $end
$var wire 1 + sampler $end
$scope module i1 $end
$var wire 1 , gnd $end
$var wire 1 - vcc $end
$var wire 1 . unknown $end
$var tri1 1 / devclrn $end
$var tri1 1 0 devpor $end
$var tri1 1 1 devoe $end
$var wire 1 2 inst111|Add0~0_combout $end
$var wire 1 3 inst111|Add0~4_combout $end
$var wire 1 4 inst111|Add0~6_combout $end
$var wire 1 5 inst111|Add0~10_combout $end
$var wire 1 6 inst111|Add0~18_combout $end
$var wire 1 7 inst111|Add0~45 $end
$var wire 1 8 inst111|Add0~46_combout $end
$var wire 1 9 inst111|Add0~47 $end
$var wire 1 : inst111|Add0~48_combout $end
$var wire 1 ; inst111|Add0~49 $end
$var wire 1 < inst111|Add0~50_combout $end
$var wire 1 = inst111|Add0~51 $end
$var wire 1 > inst111|Add0~52_combout $end
$var wire 1 ? inst111|Equal0~2_combout $end
$var wire 1 @ inst111|Equal0~7_combout $end
$var wire 1 A inst111|cnt~11_combout $end
$var wire 1 B clk~combout $end
$var wire 1 C clk~clkctrl_outclk $end
$var wire 1 D inst111|Add0~1 $end
$var wire 1 E inst111|Add0~2_combout $end
$var wire 1 F inst111|Add0~3 $end
$var wire 1 G inst111|Add0~5 $end
$var wire 1 H inst111|Add0~7 $end
$var wire 1 I inst111|Add0~8_combout $end
$var wire 1 J inst111|Add0~9 $end
$var wire 1 K inst111|Add0~11 $end
$var wire 1 L inst111|Add0~12_combout $end
$var wire 1 M inst111|cnt~1_combout $end
$var wire 1 N inst111|Add0~13 $end
$var wire 1 O inst111|Add0~15 $end
$var wire 1 P inst111|Add0~16_combout $end
$var wire 1 Q inst111|Add0~17 $end
$var wire 1 R inst111|Add0~19 $end
$var wire 1 S inst111|Add0~20_combout $end
$var wire 1 T inst111|Add0~21 $end
$var wire 1 U inst111|Add0~22_combout $end
$var wire 1 V inst111|cnt~0_combout $end
$var wire 1 W inst111|Add0~23 $end
$var wire 1 X inst111|Add0~24_combout $end
$var wire 1 Y inst111|cnt~2_combout $end
$var wire 1 Z inst111|Add0~25 $end
$var wire 1 [ inst111|Add0~26_combout $end
$var wire 1 \ inst111|cnt~3_combout $end
$var wire 1 ] inst111|Add0~27 $end
$var wire 1 ^ inst111|Add0~28_combout $end
$var wire 1 _ inst111|cnt~4_combout $end
$var wire 1 ` inst111|Add0~29 $end
$var wire 1 a inst111|Add0~30_combout $end
$var wire 1 b inst111|Add0~31 $end
$var wire 1 c inst111|Add0~32_combout $end
$var wire 1 d inst111|cnt~5_combout $end
$var wire 1 e inst111|Add0~33 $end
$var wire 1 f inst111|Add0~34_combout $end
$var wire 1 g inst111|Add0~35 $end
$var wire 1 h inst111|Add0~36_combout $end
$var wire 1 i inst111|cnt~6_combout $end
$var wire 1 j inst111|Add0~37 $end
$var wire 1 k inst111|Add0~38_combout $end
$var wire 1 l inst111|cnt~7_combout $end
$var wire 1 m inst111|Equal0~5_combout $end
$var wire 1 n inst111|Add0~39 $end
$var wire 1 o inst111|Add0~40_combout $end
$var wire 1 p inst111|cnt~8_combout $end
$var wire 1 q inst111|Add0~41 $end
$var wire 1 r inst111|Add0~43 $end
$var wire 1 s inst111|Add0~44_combout $end
$var wire 1 t inst111|cnt~10_combout $end
$var wire 1 u inst111|Add0~42_combout $end
$var wire 1 v inst111|cnt~9_combout $end
$var wire 1 w inst111|Equal0~6_combout $end
$var wire 1 x inst111|Equal0~3_combout $end
$var wire 1 y inst111|Add0~14_combout $end
$var wire 1 z inst111|Equal0~1_combout $end
$var wire 1 { inst111|Equal0~0_combout $end
$var wire 1 | inst111|Equal0~4_combout $end
$var wire 1 } inst111|Equal0~8_combout $end
$var wire 1 ~ inst111|clk_out~0_combout $end
$var wire 1 !! inst111|clk_out~regout $end
$var wire 1 "! inst111|clk_out~clkctrl_outclk $end
$var wire 1 #! inst111|q~2_combout $end
$var wire 1 $! inst111|q[2]~1_combout $end
$var wire 1 %! inst111|q~0_combout $end
$var wire 1 &! inst111|q[0]~3_combout $end
$var wire 1 '! inst111|cnt [26] $end
$var wire 1 (! inst111|cnt [25] $end
$var wire 1 )! inst111|cnt [24] $end
$var wire 1 *! inst111|cnt [23] $end
$var wire 1 +! inst111|cnt [22] $end
$var wire 1 ,! inst111|cnt [21] $end
$var wire 1 -! inst111|cnt [20] $end
$var wire 1 .! inst111|cnt [19] $end
$var wire 1 /! inst111|cnt [18] $end
$var wire 1 0! inst111|cnt [17] $end
$var wire 1 1! inst111|cnt [16] $end
$var wire 1 2! inst111|cnt [15] $end
$var wire 1 3! inst111|cnt [14] $end
$var wire 1 4! inst111|cnt [13] $end
$var wire 1 5! inst111|cnt [12] $end
$var wire 1 6! inst111|cnt [11] $end
$var wire 1 7! inst111|cnt [10] $end
$var wire 1 8! inst111|cnt [9] $end
$var wire 1 9! inst111|cnt [8] $end
$var wire 1 :! inst111|cnt [7] $end
$var wire 1 ;! inst111|cnt [6] $end
$var wire 1 <! inst111|cnt [5] $end
$var wire 1 =! inst111|cnt [4] $end
$var wire 1 >! inst111|cnt [3] $end
$var wire 1 ?! inst111|cnt [2] $end
$var wire 1 @! inst111|cnt [1] $end
$var wire 1 A! inst111|cnt [0] $end
$var wire 1 B! inst111|q [3] $end
$var wire 1 C! inst111|q [2] $end
$var wire 1 D! inst111|q [1] $end
$var wire 1 E! inst111|q [0] $end
$upscope $end
$upscope $end
$enddefinitions $end
#0
$dumpvars
0!
x"
x#
x$
x%
x&
1'
1(
1)
1*
x+
0,
1-
x.
1/
10
11
x2
x3
x4
x5
x6
x7
x8
x9
x:
x;
x<
x=
x>
x?
x@
xA
0B
xC
xD
xE
xF
xG
xH
xI
xJ
xK
xL
xM
xN
xO
xP
xQ
xR
xS
xT
xU
xV
xW
xX
xY
xZ
x[
x\
x]
x^
x_
x`
xa
xb
xc
xd
xe
xf
xg
xh
xi
xj
xk
xl
xm
xn
xo
xp
xq
xr
xs
xt
xu
xv
xw
xx
xy
xz
x{
x|
x}
x~
0!!
x"!
x#!
x$!
x%!
1&!
0A!
0@!
0?!
0>!
0=!
0<!
0;!
0:!
09!
08!
07!
06!
05!
04!
03!
02!
01!
00!
0/!
0.!
0-!
0,!
0+!
0*!
0)!
0(!
0'!
0E!
0D!
0C!
0B!
$end
#136
0C
#644
0m
#646
0x
#649
0@
0w
#653
0?
#657
0$!
0%!
#955
0{
#1030
0Q
#1034
0T
#1039
1g
1b
#1044
1F
#1045
0;
#1073
0z
#1089
1=
#1093
19
#1099
0G
1H
#1100
1K
#1102
1O
1R
#1103
0D
#1130
0#!
#1133
12
#1154
0J
#1260
0j
0e
#1274
0N
#1334
0`
#1340
07
1n
#1349
1]
#1352
1W
#1382
1r
#1459
0q
#1536
06
#1540
0U
#1545
0c
0h
#1550
03
#1551
0<
#1595
0>
#1599
0:
#1602
0}
#1605
0|
0I
04
#1606
0L
#1608
0S
0P
#1609
0E
#1624
0"!
#1660
05
#1766
0f
0k
#1780
0y
#1839
0Z
#1840
0a
#1846
0o
08
#1855
0^
#1858
0X
#1888
0s
#1965
0u
#2157
0A
#2241
0~
#2345
0[
#2423
0i
#2500
1!
0+
#2579
0d
#2636
0l
#2726
0p
#2734
0_
#2757
0t
#2823
0v
#2891
0M
#2896
0V
#3384
0\
#3550
0Y
#3610
1B
#3746
1C
#4118
0"
#4145
0&
#4155
0#
#4158
0%
#4160
0$
#5000
0!
1+
#5638
1A!
#6110
0B
#6246
0C
#6741
1D
#6771
02
#7247
1E
#7500
1!
0+
#8610
1B
#8746
1C
#10000
0!
1+
#10638
0A!
1@!
#11110
0B
#11246
0C
#11682
0F
#11709
0E
#11741
0D
#11771
12
#11827
1F
#12247
1E
#12500
1!
0+
#13610
1B
#13746
1C
#15000
0!
1+
#15638
1A!
#16110
0B
#16246
0C
#16741
1D
#16771
02
#16827
0F
#17247
0E
#17333
13
#17500
1!
0+
#18610
1B
#18746
1C
#20000
0!
1+
#20638
1?!
0A!
0@!
#21110
0B
#21246
0C
#21682
1F
#21709
1E
#21741
0D
#21771
12
#22247
0E
#22500
1!
0+
#23610
1B
#23746
1C
#25000
0!
1+
#25638
1A!
#26110
0B
#26246
0C
#26741
1D
#26771
02
#27247
1E
#27500
1!
0+
#28610
1B
#28746
1C
#30000
0!
1+
#30638
0A!
1@!
#31110
0B
#31246
0C
#31682
0F
#31709
0E
#31741
0D
#31768
1G
#31771
12
#31827
1F
#31913
0G
#32247
1E
#32500
1!
0+
#33610
1B
#33746
1C
#35000
0!
1+
#35638
1A!
#36110
0B
#36246
0C
#36741
1D
#36771
02
#36827
0F
#36913
1G
#37247
0E
#37333
03
#37419
14
#37500
1!
0+
#38610
1B
#38746
1C
#40000
0!
1+
#40638
1>!
0?!
0A!
0@!
#41110
0B
#41246
0C
#41682
1F
#41709
1E
#41737
0H
0G
#41741
0D
#41771
12
#41823
1H
#42247
0E
#42500
1!
0+
#43610
1B
#43746
1C
#45000
0!
1+
#45638
1A!
#46110
0B
#46246
0C
#46741
1D
#46771
02
#47247
1E
#47500
1!
0+
#48610
1B
#48746
1C
#50000
0!
1+
#50638
0A!
1@!
#51110
0B
#51246
0C
#51682
0F
#51709
0E
#51741
0D
#51771
12
#51827
1F
#52247
1E
#52500
1!
0+
#53610
1B
#53746
1C
#55000
0!
1+
#55638
1A!
#56110
0B
#56246
0C
#56741
1D
#56771
02
#56827
0F
#57247
0E
#57333
13
#57500
1!
0+
#58610
1B
#58746
1C
#60000
0!
1+
#60638
1?!
0A!
0@!
#61110
0B
#61246
0C
#61682
1F
#61709
1E
#61741
0D
#61771
12
#62247
0E
#62500
1!
0+
#63610
1B
#63746
1C
#65000
0!
1+
#65638
1A!
#66110
0B
#66246
0C
#66741
1D
#66771
02
#67247
1E
#67500
1!
0+
#68610
1B
#68746
1C
#70000
0!
1+
#70638
0A!
1@!
#71110
0B
#71246
0C
#71682
0F
#71709
0E
#71741
0D
#71768
1G
#71771
12
#71827
1F
#71854
0H
#71913
0G
#71999
1H
#72247
1E
#72500
1!
0+
#73610
1B
#73746
1C
#75000
0!
1+
#75638
1A!
#76110
0B
#76246
0C
#76741
1D
#76749
1?
#76771
02
#76827
0F
#76913
1G
#76999
0H
#77247
0E
#77333
03
#77419
04
#77500
1!
0+
#77505
1I
#78610
1B
#78746
1C
#80000
0!
1+
#80638
0>!
0?!
0A!
0@!
1=!
#81110
0B
#81246
0C
#81291
0?
#81682
1F
#81709
0I
1E
#81737
1H
0G
#81741
0D
#81771
12
#82243
1I
#82247
0E
#82500
1!
0+
#83610
1B
#83746
1C
#85000
0!
1+
#85638
1A!
#86110
0B
#86246
0C
#86741
1D
#86771
02
#87247
1E
#87500
1!
0+
#88610
1B
#88746
1C
#90000
0!
1+
#90638
0A!
1@!
#91110
0B
#91246
0C
#91682
0F
#91709
0E
#91741
0D
#91771
12
#91827
1F
#92247
1E
#92500
1!
0+
#93610
1B
#93746
1C
#95000
0!
1+
#95638
1A!
#96110
0B
#96246
0C
#96741
1D
#96771
02
#96827
0F
#97247
0E
#97333
13
#97500
1!
0+
#98610
1B
#98746
1C
#100000
0!
1+
#100638
1?!
0A!
0@!
#101110
0B
#101246
0C
#101682
1F
#101709
1E
#101741
0D
#101771
12
#102247
0E
#102500
1!
0+
#103610
1B
#103746
1C
#105000
0!
1+
#105638
1A!
#106110
0B
#106246
0C
#106741
1D
#106771
02
#107247
1E
#107500
1!
0+
#108610
1B
#108746
1C
#110000
0!
1+
#110638
0A!
1@!
#111110
0B
#111246
0C
#111682
0F
#111709
0E
#111741
0D
#111768
1G
#111771
12
#111827
1F
#111913
0G
#112247
1E
#112500
1!
0+
#113610
1B
#113746
1C
#115000
0!
1+
#115638
1A!
#116110
0B
#116246
0C
#116741
1D
#116771
02
#116827
0F
#116913
1G
#117247
0E
#117333
03
#117419
14
#117500
1!
0+
#118610
1B
#118746
1C
#120000
0!
1+
#120638
1>!
0?!
0A!
0@!
#121110
0B
#121246
0C
#121682
1F
#121709
1E
#121737
0H
0G
#121741
0D
#121771
12
#121823
1H
#122247
0E
#122500
1!
0+
#123610
1B
#123746
1C
#125000
0!
1+
#125638
1A!
#126110
0B
#126246
0C
#126741
1D
#126771
02
#127247
1E
#127500
1!
0+
#128610
1B
#128746
1C
#130000
0!
1+
#130638
0A!
1@!
#131110
0B
#131246
0C
#131682
0F
#131709
0E
#131741
0D
#131771
12
#131827
1F
#132247
1E
#132500
1!
0+
#133610
1B
#133746
1C
#135000
0!
1+
#135638
1A!
#136110
0B
#136246
0C
#136741
1D
#136771
02
#136827
0F
#137247
0E
#137333
13
#137500
1!
0+
#138610
1B
#138746
1C
#140000
0!
1+
#140638
1?!
0A!
0@!
#141110
0B
#141246
0C
#141682
1F
#141709
1E
#141741
0D
#141771
12
#142247
0E
#142500
1!
0+
#143610
1B
#143746
1C
#145000
0!
1+
#145638
1A!
#146110
0B
#146246
0C
#146741
1D
#146771
02
#147247
1E
#147500
1!
0+
#148610
1B
#148746
1C
#150000
0!
1+
#150638
0A!
1@!
#151110
0B
#151246
0C
#151682
0F
#151709
0E
#151741
0D
#151768
1G
#151771
12
#151827
1F
#151854
0H
#151913
0G
#151999
1H
#152247
1E
#152500
1!
0+
#153610
1B
#153746
1C
#155000
0!
1+
#155638
1A!
#156110
0B
#156246
0C
#156741
1D
#156749
1?
#156771
02
#156827
0F
#156913
1G
#156999
0H
#157189
1J
#157247
0E
#157333
03
#157419
04
#157500
1!
0+
#157505
0I
#157695
15
#158610
1B
#158746
1C
#160000
0!
1+
#160638
1<!
0>!
0?!
0A!
0@!
0=!
#161110
0B
#161246
0C
#161291
0?
#161682
1F
#161709
1I
1E
#161737
1H
0G
#161738
0K
#161741
0D
#161764
05
#161771
12
#161792
0J
#161878
1K
#162243
0I
#162247
0E
#162298
15
#162500
1!
0+
#163610
1B
#163746
1C
#165000
0!
1+
#165638
1A!
#166110
0B
#166246
0C
#166741
1D
#166771
02
#167247
1E
#167500
1!
0+
#168610
1B
#168746
1C
#170000
0!
1+
#170638
0A!
1@!
#171110
0B
#171246
0C
#171682
0F
#171709
0E
#171741
0D
#171771
12
#171827
1F
#172247
1E
#172500
1!
0+
#173610
1B
#173746
1C
#175000
0!
1+
#175638
1A!
#176110
0B
#176246
0C
#176741
1D
#176771
02
#176827
0F
#177247
0E
#177333
13
#177500
1!
0+
#178610
1B
#178746
1C
#180000
0!
1+
#180638
1?!
0A!
0@!
#181110
0B
#181246
0C
#181682
1F
#181709
1E
#181741
0D
#181771
12
#182247
0E
#182500
1!
0+
#183610
1B
#183746
1C
#185000
0!
1+
#185638
1A!
#186110
0B
#186246
0C
#186741
1D
#186771
02
#187247
1E
#187500
1!
0+
#188610
1B
#188746
1C
#190000
0!
1+
#190638
0A!
1@!
#191110
0B
#191246
0C
#191682
0F
#191709
0E
#191741
0D
#191768
1G
#191771
12
#191827
1F
#191913
0G
#192247
1E
#192500
1!
0+
#193610
1B
#193746
1C
#195000
0!
1+
#195638
1A!
#196110
0B
#196246
0C
#196741
1D
#196771
02
#196827
0F
#196913
1G
#197247
0E
#197333
03
#197419
14
#197500
1!
0+
#198610
1B
#198746
1C
#200000
0!
1+
#200638
1>!
0?!
0A!
0@!
#201110
0B
#201246
0C
#201682
1F
#201709
1E
#201737
0H
0G
#201741
0D
#201771
12
#201823
1H
#202247
0E
#202500
1!
0+
#203610
1B
#203746
1C
#205000
0!
1+
#205638
1A!
#206110
0B
#206246
0C
#206741
1D
#206771
02
#207247
1E
#207500
1!
0+
#208610
1B
#208746
1C
#210000
0!
1+
#210638
0A!
1@!
#211110
0B
#211246
0C
#211682
0F
#211709
0E
#211741
0D
#211771
12
#211827
1F
#212247
1E
#212500
1!
0+
#213610
1B
#213746
1C
#215000
0!
1+
#215638
1A!
#216110
0B
#216246
0C
#216741
1D
#216771
02
#216827
0F
#217247
0E
#217333
13
#217500
1!
0+
#218610
1B
#218746
1C
#220000
0!
1+
#220638
1?!
0A!
0@!
#221110
0B
#221246
0C
#221682
1F
#221709
1E
#221741
0D
#221771
12
#222247
0E
#222500
1!
0+
#223610
1B
#223746
1C
#225000
0!
1+
#225638
1A!
#226110
0B
#226246
0C
#226741
1D
#226771
02
#227247
1E
#227500
1!
0+
#228610
1B
#228746
1C
#230000
0!
1+
#230638
0A!
1@!
#231110
0B
#231246
0C
#231682
0F
#231709
0E
#231741
0D
#231768
1G
#231771
12
#231827
1F
#231854
0H
#231913
0G
#231999
1H
#232247
1E
#232500
1!
0+
#233610
1B
#233746
1C
#235000
0!
1+
#235638
1A!
#236110
0B
#236246
0C
#236741
1D
#236749
1?
#236771
02
#236827
0F
#236913
1G
#236999
0H
#237247
0E
#237333
03
#237419
04
#237500
1!
0+
#237505
1I
#238610
1B
#238746
1C
#240000
0!
1+
#240638
0>!
0?!
0A!
0@!
1=!
#241110
0B
#241246
0C
#241291
0?
#241682
1F
#241709
0I
1E
#241711
1z
#241737
1H
0G
#241741
0D
#241771
12
#242243
1I
#242247
0E
#242500
1!
0+
#243610
1B
#243746
1C
#245000
0!
1+
#245638
1A!
#246110
0B
#246246
0C
#246741
1D
#246771
02
#247247
1E
#247500
1!
0+
#248610
1B
#248746
1C
#250000
0!
1+
#250638
0A!
1@!
#251110
0B
#251246
0C
#251682
0F
#251709
0E
#251741
0D
#251771
12
#251827
1F
#252247
1E
#252500
1!
0+
#253610
1B
#253746
1C
#255000
0!
1+
#255638
1A!
#256110
0B
#256246
0C
#256741
1D
#256771
02
#256827
0F
#257247
0E
#257333
13
#257500
1!
0+
#258610
1B
#258746
1C
#260000
0!
1+
#260638
1?!
0A!
0@!
#261110
0B
#261246
0C
#261682
1F
#261709
1E
#261741
0D
#261771
12
#262247
0E
#262500
1!
0+
#263610
1B
#263746
1C
#265000
0!
1+
#265638
1A!
#266110
0B
#266246
0C
#266741
1D
#266771
02
#267247
1E
#267500
1!
0+
#268610
1B
#268746
1C
#270000
0!
1+
#270638
0A!
1@!
#271110
0B
#271246
0C
#271682
0F
#271709
0E
#271741
0D
#271768
1G
#271771
12
#271827
1F
#271913
0G
#272247
1E
#272500
1!
0+
#273610
1B
#273746
1C
#275000
0!
1+
#275638
1A!
#276110
0B
#276246
0C
#276741
1D
#276771
02
#276827
0F
#276913
1G
#277247
0E
#277333
03
#277419
14
#277500
1!
0+
#278610
1B
#278746
1C
#280000
0!
1+
#280638
1>!
0?!
0A!
0@!
#281110
0B
#281246
0C
#281682
1F
#281709
1E
#281737
0H
0G
#281741
0D
#281771
12
#281823
1H
#282247
0E
#282500
1!
0+
#283610
1B
#283746
1C
#285000
0!
1+
#285638
1A!
#286110
0B
#286246
0C
#286741
1D
#286771
02
#287247
1E
#287500
1!
0+
#288610
1B
#288746
1C
#290000
0!
1+
#290638
0A!
1@!
#291110
0B
#291246
0C
#291682
0F
#291709
0E
#291741
0D
#291771
12
#291827
1F
#292247
1E
#292500
1!
0+
#293610
1B
#293746
1C
#295000
0!
1+
#295638
1A!
#296110
0B
#296246
0C
#296741
1D
#296771
02
#296827
0F
#297247
0E
#297333
13
#297500
1!
0+
#298610
1B
#298746
1C
#300000
0!
1+
#300638
1?!
0A!
0@!
#301110
0B
#301246
0C
#301682
1F
#301709
1E
#301741
0D
#301771
12
#302247
0E
#302500
1!
0+
#303610
1B
#303746
1C
#305000
0!
1+
#305638
1A!
#306110
0B
#306246
0C
#306741
1D
#306771
02
#307247
1E
#307500
1!
0+
#308610
1B
#308746
1C
#310000
0!
1+
#310638
0A!
1@!
#311110
0B
#311246
0C
#311682
0F
#311709
0E
#311741
0D
#311768
1G
#311771
12
#311827
1F
#311854
0H
#311913
0G
#311999
1H
#312247
1E
#312500
1!
0+
#313610
1B
#313746
1C
#315000
0!
1+
#315638
1A!
#316110
0B
#316246
0C
#316741
1D
#316749
1?
#316771
02
#316827
0F
#316913
1G
#316999
0H
#317189
1J
#317247
0E
#317275
0K
#317333
03
#317419
04
#317500
1!
0+
#317505
0I
#317695
05
#317781
1L
#318610
1B
#318746
1C
#319066
1M
#320000
0!
1+
#320638
0<!
0>!
0?!
0A!
0@!
0=!
1;!
#321110
0B
#321246
0C
#321291
0?
#321682
1F
#321709
1I
1E
#321711
0z
#321737
1H
0G
#321738
1K
#321741
0D
#321764
15
#321771
12
#321792
0J
#322243
0I
#322247
0E
#322298
05
#322500
1!
0+
#323610
1B
#323746
1C
#325000
0!
1+
#325638
1A!
#326110
0B
#326246
0C
#326741
1D
#326771
02
#327247
1E
#327500
1!
0+
#328610
1B
#328746
1C
#330000
0!
1+
#330638
0A!
1@!
#331110
0B
#331246
0C
#331682
0F
#331709
0E
#331741
0D
#331771
12
#331827
1F
#332247
1E
#332500
1!
0+
#333610
1B
#333746
1C
#335000
0!
1+
#335638
1A!
#336110
0B
#336246
0C
#336741
1D
#336771
02
#336827
0F
#337247
0E
#337333
13
#337500
1!
0+
#338610
1B
#338746
1C
#340000
0!
1+
#340638
1?!
0A!
0@!
#341110
0B
#341246
0C
#341682
1F
#341709
1E
#341741
0D
#341771
12
#342247
0E
#342500
1!
0+
#343610
1B
#343746
1C
#345000
0!
1+
#345638
1A!
#346110
0B
#346246
0C
#346741
1D
#346771
02
#347247
1E
#347500
1!
0+
#348610
1B
#348746
1C
#350000
0!
1+
#350638
0A!
1@!
#351110
0B
#351246
0C
#351682
0F
#351709
0E
#351741
0D
#351768
1G
#351771
12
#351827
1F
#351913
0G
#352247
1E
#352500
1!
0+
#353610
1B
#353746
1C
#355000
0!
1+
#355638
1A!
#356110
0B
#356246
0C
#356741
1D
#356771
02
#356827
0F
#356913
1G
#357247
0E
#357333
03
#357419
14
#357500
1!
0+
#358610
1B
#358746
1C
#360000
0!
1+
#360638
1>!
0?!
0A!
0@!
#361110
0B
#361246
0C
#361682
1F
#361709
1E
#361737
0H
0G
#361741
0D
#361771
12
#361823
1H
#362247
0E
#362500
1!
0+
#363610
1B
#363746
1C
#365000
0!
1+
#365638
1A!
#366110
0B
#366246
0C
#366741
1D
#366771
02
#367247
1E
#367500
1!
0+
#368610
1B
#368746
1C
#370000
0!
1+
#370638
0A!
1@!
#371110
0B
#371246
0C
#371682
0F
#371709
0E
#371741
0D
#371771
12
#371827
1F
#372247
1E
#372500
1!
0+
#373610
1B
#373746
1C
#375000
0!
1+
#375638
1A!
#376110
0B
#376246
0C
#376741
1D
#376771
02
#376827
0F
#377247
0E
#377333
13
#377500
1!
0+
#378610
1B
#378746
1C
#380000
0!
1+
#380638
1?!
0A!
0@!
#381110
0B
#381246
0C
#381682
1F
#381709
1E
#381741
0D
#381771
12
#382247
0E
#382500
1!
0+
#383610
1B
#383746
1C
#385000
0!
1+
#385638
1A!
#386110
0B
#386246
0C
#386741
1D
#386771
02
#387247
1E
#387500
1!
0+
#388610
1B
#388746
1C
#390000
0!
1+
#390638
0A!
1@!
#391110
0B
#391246
0C
#391682
0F
#391709
0E
#391741
0D
#391768
1G
#391771
12
#391827
1F
#391854
0H
#391913
0G
#391999
1H
#392247
1E
#392500
1!
0+
#393610
1B
#393746
1C
#395000
0!
1+
#395638
1A!
#396110
0B
#396246
0C
#396741
1D
#396749
1?
#396771
02
#396827
0F
#396913
1G
#396999
0H
#397247
0E
#397333
03
#397419
04
#397500
1!
0+
#397505
1I
#398610
1B
#398746
1C
#400000
0!
1+
#400638
0>!
0?!
0A!
0@!
1=!
#401110
0B
#401246
0C
#401291
0?
#401682
1F
#401709
0I
1E
#401737
1H
0G
#401741
0D
#401771
12
#402243
1I
#402247
0E
#402500
1!
0+
#403610
1B
#403746
1C
#405000
0!
1+
#405638
1A!
#406110
0B
#406246
0C
#406741
1D
#406771
02
#407247
1E
#407500
1!
0+
#408610
1B
#408746
1C
#410000
0!
1+
#410638
0A!
1@!
#411110
0B
#411246
0C
#411682
0F
#411709
0E
#411741
0D
#411771
12
#411827
1F
#412247
1E
#412500
1!
0+
#413610
1B
#413746
1C
#415000
0!
1+
#415638
1A!
#416110
0B
#416246
0C
#416741
1D
#416771
02
#416827
0F
#417247
0E
#417333
13
#417500
1!
0+
#418610
1B
#418746
1C
#420000
0!
1+
#420638
1?!
0A!
0@!
#421110
0B
#421246
0C
#421682
1F
#421709
1E
#421741
0D
#421771
12
#422247
0E
#422500
1!
0+
#423610
1B
#423746
1C
#425000
0!
1+
#425638
1A!
#426110
0B
#426246
0C
#426741
1D
#426771
02
#427247
1E
#427500
1!
0+
#428610
1B
#428746
1C
#430000
0!
1+
#430638
0A!
1@!
#431110
0B
#431246
0C
#431682
0F
#431709
0E
#431741
0D
#431768
1G
#431771
12
#431827
1F
#431913
0G
#432247
1E
#432500
1!
0+
#433610
1B
#433746
1C
#435000
0!
1+
#435638
1A!
#436110
0B
#436246
0C
#436741
1D
#436771
02
#436827
0F
#436913
1G
#437247
0E
#437333
03
#437419
14
#437500
1!
0+
#438610
1B
#438746
1C
#440000
0!
1+
#440638
1>!
0?!
0A!
0@!
#441110
0B
#441246
0C
#441682
1F
#441709
1E
#441737
0H
0G
#441741
0D
#441771
12
#441823
1H
#442247
0E
#442500
1!
0+
#443610
1B
#443746
1C
#445000
0!
1+
#445638
1A!
#446110
0B
#446246
0C
#446741
1D
#446771
02
#447247
1E
#447500
1!
0+
#448610
1B
#448746
1C
#450000
0!
1+
#450638
0A!
1@!
#451110
0B
#451246
0C
#451682
0F
#451709
0E
#451741
0D
#451771
12
#451827
1F
#452247
1E
#452500
1!
0+
#453610
1B
#453746
1C
#455000
0!
1+
#455638
1A!
#456110
0B
#456246
0C
#456741
1D
#456771
02
#456827
0F
#457247
0E
#457333
13
#457500
1!
0+
#458610
1B
#458746
1C
#460000
0!
1+
#460638
1?!
0A!
0@!
#461110
0B
#461246
0C
#461682
1F
#461709
1E
#461741
0D
#461771
12
#462247
0E
#462500
1!
0+
#463610
1B
#463746
1C
#465000
0!
1+
#465638
1A!
#466110
0B
#466246
0C
#466741
1D
#466771
02
#467247
1E
#467500
1!
0+
#468610
1B
#468746
1C
#470000
0!
1+
#470638
0A!
1@!
#471110
0B
#471246
0C
#471682
0F
#471709
0E
#471741
0D
#471768
1G
#471771
12
#471827
1F
#471854
0H
#471913
0G
#471999
1H
#472247
1E
#472500
1!
0+
#473610
1B
#473746
1C
#475000
0!
1+
#475638
1A!
#476110
0B
#476246
0C
#476741
1D
#476749
1?
#476771
02
#476827
0F
#476913
1G
#476999
0H
#477189
1J
#477247
0E
#477333
03
#477419
04
#477500
1!
0+
#477505
0I
#477695
15
#478610
1B
#478746
1C
#480000
0!
1+
#480638
1<!
0>!
0?!
0A!
0@!
0=!
#481110
0B
#481246
0C
#481291
0?
#481682
1F
#481709
1I
1E
#481737
1H
0G
#481738
0K
#481741
0D
#481764
05
#481771
12
#481792
0J
#481824
1N
#481878
1K
#481964
0N
#482243
0I
#482247
0E
#482298
15
#482500
1!
0+
#483610
1B
#483746
1C
#485000
0!
1+
#485638
1A!
#486110
0B
#486246
0C
#486741
1D
#486771
02
#487247
1E
#487500
1!
0+
#488610
1B
#488746
1C
#490000
0!
1+
#490638
0A!
1@!
#491110
0B
#491246
0C
#491682
0F
#491709
0E
#491741
0D
#491771
12
#491827
1F
#492247
1E
#492500
1!
0+
#493610
1B
#493746
1C
#495000
0!
1+
#495638
1A!
#496110
0B
#496246
0C
#496741
1D
#496771
02
#496827
0F
#497247
0E
#497333
13
#497500
1!
0+
#498610
1B
#498746
1C
#500000
0!
1+
#500638
1?!
0A!
0@!
#501110
0B
#501246
0C
#501682
1F
#501709
1E
#501741
0D
#501771
12
#502247
0E
#502500
1!
0+
#503610
1B
#503746
1C
#505000
0!
1+
#505638
1A!
#506110
0B
#506246
0C
#506741
1D
#506771
02
#507247
1E
#507500
1!
0+
#508610
1B
#508746
1C
#510000
0!
1+
#510638
0A!
1@!
#511110
0B
#511246
0C
#511682
0F
#511709
0E
#511741
0D
#511768
1G
#511771
12
#511827
1F
#511913
0G
#512247
1E
#512500
1!
0+
#513610
1B
#513746
1C
#515000
0!
1+
#515638
1A!
#516110
0B
#516246
0C
#516741
1D
#516771
02
#516827
0F
#516913
1G
#517247
0E
#517333
03
#517419
14
#517500
1!
0+
#518610
1B
#518746
1C
#520000
0!
1+
#520638
1>!
0?!
0A!
0@!
#521110
0B
#521246
0C
#521682
1F
#521709
1E
#521737
0H
0G
#521741
0D
#521771
12
#521823
1H
#522247
0E
#522500
1!
0+
#523610
1B
#523746
1C
#525000
0!
1+
#525638
1A!
#526110
0B
#526246
0C
#526741
1D
#526771
02
#527247
1E
#527500
1!
0+
#528610
1B
#528746
1C
#530000
0!
1+
#530638
0A!
1@!
#531110
0B
#531246
0C
#531682
0F
#531709
0E
#531741
0D
#531771
12
#531827
1F
#532247
1E
#532500
1!
0+
#533610
1B
#533746
1C
#535000
0!
1+
#535638
1A!
#536110
0B
#536246
0C
#536741
1D
#536771
02
#536827
0F
#537247
0E
#537333
13
#537500
1!
0+
#538610
1B
#538746
1C
#540000
0!
1+
#540638
1?!
0A!
0@!
#541110
0B
#541246
0C
#541682
1F
#541709
1E
#541741
0D
#541771
12
#542247
0E
#542500
1!
0+
#543610
1B
#543746
1C
#545000
0!
1+
#545638
1A!
#546110
0B
#546246
0C
#546741
1D
#546771
02
#547247
1E
#547500
1!
0+
